Fit linear models to plankton time series data — pr_model_data • planktonr
…
    Examples

# Fit models to zooplankton biomass
dat <- pr_get_EOVs(Survey = "NRS") %>%
  dplyr::filter(Parameters == "Biomass_mgm3") %>%
  pr_remove_outliers(2) %>%
  pr_model_data()

# Extract and view model coefficients
models <- pr_get_model(dat)
coeffs <- pr_get_coeffs(models)
print(coeffs)
#> # A tibble: 40 × 7
#>    Station         term              estimate std.error statistic p.value signif
#>    <chr>           <chr>                <dbl>     <dbl>     <dbl>   <dbl> <chr> 
#>  1 Darwin          (Intercept)       -4.86e+3  2354.       -2.07  4.08e-2 "*"   
#>  2 Darwin          Year_Local         2.44e+0     1.17      2.09  3.85e-2 "*"   
#>  3 Darwin          pr_harmonic(Mont… -5.66e+0     6.52     -0.868 3.87e-1 ""    
#>  4 Darwin          pr_harmonic(Mont… -3.23e+0     7.11     -0.454 6.51e-1 ""    
#>  5 Esperance       (Intercept)        1.65e+2  1177.        0.140 8.91e-1 ""    
#>  6 Esperance       Year_Local        -7.79e-2     0.585    -0.133 8.97e-1 ""    
#>  7 Esperance       pr_harmonic(Mont… -1.31e+0     1.01     -1.29  2.24e-1 ""    
#>  8 Esperance       pr_harmonic(Mont…  2.87e+0     1.18      2.44  3.29e-2 "*"   
#>  9 Kangaroo Island (Intercept)       -1.12e+3   255.       -4.39  4.62e-5 "***" 
#> 10 Kangaroo Island Year_Local         5.59e-1     0.127     4.42  4.21e-5 "***" 
#> # ℹ 30 more rows
…
